…
### Creating the score variable

Lets take a look at the `audience_score` and `imdb_rating`:

``` r
movies %>% select(imdb_rating, audience_score)
```

    ## # A tibble: 651 x 2
    ##    imdb_rating audience_score
    ##          <dbl>          <dbl>
    ##  1         5.5             73
    ##  2         7.3             81
    ##  3         7.6             91
    ##  4         7.2             76
    ##  5         5.1             27
    ##  6         7.8             86
    ##  7         7.2             76
    ##  8         5.5             47
    ##  9         7.5             89
    ## 10         6.6             66
    ## # ... with 641 more rows
…
### Plot of Oscar nominees and Oscar winners

Taking a subset from the dataset, I will show the distribution of movies
that have won an Oscar.

``` r
movies_1 <- movies %>% mutate(score = movie_score)
oscar_score <- movies_1 %>% select(audience_score, imdb_rating, best_pic_nom, best_pic_win, score)

oscar_score
```

    ## # A tibble: 651 x 5
    ##    audience_score imdb_rating best_pic_nom best_pic_win score
    ##             <dbl>       <dbl> <fct>        <fct>        <dbl>
    ##  1             73         5.5 no           no            64  
    ##  2             81         7.3 no           no            77  
    ##  3             91         7.6 no           no            83.5
    ##  4             76         7.2 no           no            74  
    ##  5             27         5.1 no           no            39  
    ##  6             86         7.8 no           no            82  
    ##  7             76         7.2 no           no            74  
    ##  8             47         5.5 no           no            51  
    ##  9             89         7.5 no           no            82  
    ## 10             66         6.6 no           no            66  
    ## # ... with 641 more rows
…
